{
  "sitename": "Neighborhood",
  "title": "Neighborhood - Let's live. Together. Everywhere.",
  "site": {
    "url": "http://neighborhood.gitlab.io"
  },
  "description": "coliving, coworking, homesharing, traveling, digital nomad",
  "keywords": "Neighborhood is an open initiative to rethink our homes, our works, our lives and all the relations in between."
}
